Configuring primitive-0.6.2.0...
Preprocessing library for primitive-0.6.2.0..
Building library for primitive-0.6.2.0..
[ 1 of 12] Compiling Control.Monad.Primitive ( Control\Monad\Primitive.hs, .stack-work\dist\5c8418a7\build\Control\Monad\Primitive.o )

[;1mControl\Monad\Primitive.hs:47:1: [;1m[35mwarning:[0m[0m[;1m [[;1m[35m-Wdeprecations[0m[0m[;1m][0m[0m[;1m
    Module `Control.Monad.Trans.Error' is deprecated:
      Use Control.Monad.Trans.Except instead[0m[0m
[;1m[34m   |[0m[0m
[;1m[34m47 |[0m[0m [;1m[35mimport Control.Monad.Trans.Error    ( ErrorT, Error)[0m[0m
[;1m[34m   |[0m[0m[;1m[35m ^^^^^^^^^^^^^^^^^^^^^^^^^^^^^^^^^^^^^^^^^^^^^^^^^^^^[0m[0m
[0m[0m[0m
[;1mControl\Monad\Primitive.hs:109:11: [;1m[35mwarning:[0m[0m[;1m [[;1m[35m-Wdeprecations[0m[0m[;1m][0m[0m[;1m
    In the use of type constructor or class `Error'
    (imported from Control.Monad.Trans.Error):
    Deprecated: "Use Control.Monad.Trans.Except instead"[0m[0m
[;1m[34m    |[0m[0m
[;1m[34m109 |[0m[0m instance ([;1m[35mError[0m[0m e, PrimMonad m) => PrimMonad (ErrorT e m) where
[;1m[34m    |[0m[0m[;1m[35m           ^^^^^[0m[0m
[0m[0m[0m
[;1mControl\Monad\Primitive.hs:109:47: [;1m[35mwarning:[0m[0m[;1m [[;1m[35m-Wdeprecations[0m[0m[;1m][0m[0m[;1m
    In the use of type constructor or class `ErrorT'
    (imported from Control.Monad.Trans.Error):
    Deprecated: "Use Control.Monad.Trans.Except instead"[0m[0m
[;1m[34m    |[0m[0m
[;1m[34m109 |[0m[0m instance (Error e, PrimMonad m) => PrimMonad ([;1m[35mErrorT[0m[0m e m) where
[;1m[34m    |[0m[0m[;1m[35m                                               ^^^^^^[0m[0m
[0m[0m[0m
[;1mControl\Monad\Primitive.hs:110:19: [;1m[35mwarning:[0m[0m[;1m [[;1m[35m-Wdeprecations[0m[0m[;1m][0m[0m[;1m
    In the use of type constructor or class `ErrorT'
    (imported from Control.Monad.Trans.Error):
    Deprecated: "Use Control.Monad.Trans.Except instead"[0m[0m
[;1m[34m    |[0m[0m
[;1m[34m110 |[0m[0m   type PrimState ([;1m[35mErrorT[0m[0m e m) = PrimState m
[;1m[34m    |[0m[0m[;1m[35m                   ^^^^^^[0m[0m
[0m[0m[0m[ 2 of 12] Compiling Data.Primitive.Internal.Compat ( Data\Primitive\Internal\Compat.hs, .stack-work\dist\5c8418a7\build\Data\Primitive\Internal\Compat.o )
[ 3 of 12] Compiling Data.Primitive.Array ( Data\Primitive\Array.hs, .stack-work\dist\5c8418a7\build\Data\Primitive\Array.o )
[ 4 of 12] Compiling Data.Primitive.MachDeps ( Data\Primitive\MachDeps.hs, .stack-work\dist\5c8418a7\build\Data\Primitive\MachDeps.o )
[ 5 of 12] Compiling Data.Primitive.Internal.Operations ( Data\Primitive\Internal\Operations.hs, .stack-work\dist\5c8418a7\build\Data\Primitive\Internal\Operations.o )
[ 6 of 12] Compiling Data.Primitive.MutVar ( Data\Primitive\MutVar.hs, .stack-work\dist\5c8418a7\build\Data\Primitive\MutVar.o )
[ 7 of 12] Compiling Data.Primitive.SmallArray ( Data\Primitive\SmallArray.hs, .stack-work\dist\5c8418a7\build\Data\Primitive\SmallArray.o )
[ 8 of 12] Compiling Data.Primitive.Types ( Data\Primitive\Types.hs, .stack-work\dist\5c8418a7\build\Data\Primitive\Types.o )
[ 9 of 12] Compiling Data.Primitive.ByteArray ( Data\Primitive\ByteArray.hs, .stack-work\dist\5c8418a7\build\Data\Primitive\ByteArray.o )
[10 of 12] Compiling Data.Primitive.Addr ( Data\Primitive\Addr.hs, .stack-work\dist\5c8418a7\build\Data\Primitive\Addr.o )
[11 of 12] Compiling Data.Primitive   ( Data\Primitive.hs, .stack-work\dist\5c8418a7\build\Data\Primitive.o )
[12 of 12] Compiling Data.Primitive.UnliftedArray ( Data\Primitive\UnliftedArray.hs, .stack-work\dist\5c8418a7\build\Data\Primitive\UnliftedArray.o )
Installing library in C:\sr\snapshots\13cecb13\lib\x86_64-windows-ghc-8.2.2\primitive-0.6.2.0-EI3NK1Xfv9zEcRtyXK2EwZ
Registering library for primitive-0.6.2.0..
